{
    "Automotive" : [
        "acura",
        "alfa",
        "audi",
        "auto",
        "autobrush",
        "automax",
        "autoNation",
        "autoSales.com",
        "autoSource",
        "autobahn",
        "autobarn",
        "autobuyers.com",
        "autogroup",
        "autohaus",
        "automall",
        "automotive",
        "autoplex",
        "autos",
        "bentley",
        "benz",
        "bmw",
        "buick",
        "cadillac",
        "calavan",
        "car",
        "chevrolet",
        "chevy",
        "daimler",
        "fiat",
        "ferrari",
        "firestone",
        "gmc",
        "honda",
        "hyundai",
        "infinity",
        "jaguar",
        "kawasaki",
        "kia",
        "lamborghini",
        "lexus",
        "lincoln",
        "maserati",
        "mazda",
        "mercedes",
        "mitsubishi",
        "motor",
        "motorcar",
        "motorcars",
        "motorcycle",
        "motors",
        "motorsports",
        "motortrend",
        "motorworld",
        "porsche",
        "rolls royce",
        "rover",
        "saab",
        "subaru",
        "toyota",
        "truck",
        "trucks",
        "volkswagen",
        "volvo"
    ],
    "Careers" : [
        "career",
        "careers"
    ],
    "Commerce" : [
        "amazon",
        "amazon.com",
        "apparel",
        "apple",
        "bath",
        "buy",
        "chic",
        "clorox",
        "commerce",
        "commission",
        "consumer",
        "consumeraffairs",
        "consumers",
        "godaddy",
        "groupon",
        "insurance",
        "lowe",
        "safegraph",
        "sherwin williams",
        "shopping",
        "t mobile",
        "under armor",
        "vistaprint",
        "walgreens",
        "walmart"
    ],
    "Entertainment" : [
        "casino",
        "casinos",
        "circus",
        "coachella",
        "documentary",
        "eats",
        "flintstones",
        "hbo",
        "hgtv",
        "siriusXM",
        "sport",
        "sports",
        "spotify",
        "video"
    ],
    "Education" : [
        "college",
        "school",
        "university"
    ],
    "Finance and Insurance" : [
        "bank",
        "loan",
        "chase",
        "finance",
        "financing",
        "founderscard",
        "insurance",
        "investment",
        "investments",
        "lending",
        "loan",
        "loans",
        "state farm"
    ],
    "Food" : [
        "bagels",
        "coconut",
        "coffee",
        "frozen",
        "grill",
        "grills",
        "heineken",
        "pepper",
        "pepsi",
        "restaurant",
        "snapple",
        "starbucks"
    ],
    "Health" : [
        "acupuncture",
        "alka seltzer",
        "aspirin",
        "bausch",
        "bayer",
        "chiropractic",
        "claritin",
        "doctor",
        "fitness",
        "health",
        "healthy",
        "healthcare",
        "lenses",
        "medic",
        "medical",
        "medicare",
        "medicine",
        "miralax",
        "nutrition",
        "skincare",
        "therapeutic",
        "therapeutics",
        "unitedhealthcare",
        "vitamin",
        "vitamins"
    ],
    "Telecom" : [
        "at&t",
        "broadband",
        "t-mobile"
    ],
    "Travel" : [
        "airpark",
        "airport",
        "beach",
        "boat",
        "boats",
        "brewhouse",
        "camp",
        "camping",
        "canada",
        "cayman",
        "coast",
        "costal",
        "coastline",
        "eurocars",
        "expeditions",
        "island",
        "islands",
        "vacation",
        "vacations"
    ]
}
